127.0.0.1 - - [17/Apr/2024:00:01:42 +0530] "GET / HTTP/1.1" 404 752
0:0:0:0:0:0:0:1 - - [17/Apr/2024:00:01:43 +0530] "GET /EmpWebApp/Login.html HTTP/1.1" 304 -
0:0:0:0:0:0:0:1 - - [17/Apr/2024:00:01:51 +0530] "GET /EmpWebApp/LoginServlet?emailId=HR&password=HR HTTP/1.1" 200 362
0:0:0:0:0:0:0:1 - - [17/Apr/2024:00:01:54 +0530] "GET /EmpWebApp/GetAllEmployees HTTP/1.1" 200 917
0:0:0:0:0:0:0:1 - - [17/Apr/2024:00:01:56 +0530] "GET /EmpWebApp/GetEmpById.html HTTP/1.1" 200 409
0:0:0:0:0:0:0:1 - - [17/Apr/2024:00:02:02 +0530] "POST /EmpWebApp/GetEmpById HTTP/1.1" 200 706
0:0:0:0:0:0:0:1 - - [17/Apr/2024:00:02:10 +0530] "GET /EmpWebApp/HRHomePage HTTP/1.1" 200 362
0:0:0:0:0:0:0:1 - - [17/Apr/2024:00:02:12 +0530] "GET /EmpWebApp/Logout HTTP/1.1" 200 367
0:0:0:0:0:0:0:1 - - [17/Apr/2024:00:02:23 +0530] "GET /EmpWebApp/LoginServlet?emailId=vaishu@gmail.com&password=123 HTTP/1.1" 200 305
0:0:0:0:0:0:0:1 - - [17/Apr/2024:00:02:26 +0530] "GET /EmpWebApp/Profile HTTP/1.1" 200 584
127.0.0.1 - - [17/Apr/2024:00:04:18 +0530] "GET / HTTP/1.1" 404 752
0:0:0:0:0:0:0:1 - - [17/Apr/2024:00:04:29 +0530] "GET /EmpWebApp/LoginServlet?emailId=vaishu@gmail.com&password=123 HTTP/1.1" 200 305
0:0:0:0:0:0:0:1 - - [17/Apr/2024:00:04:32 +0530] "GET /EmpWebApp/Profile HTTP/1.1" 200 596
0:0:0:0:0:0:0:1 - - [17/Apr/2024:00:04:36 +0530] "GET /EmpWebApp/EmpHomePage HTTP/1.1" 200 305
0:0:0:0:0:0:0:1 - - [17/Apr/2024:00:04:40 +0530] "GET /EmpWebApp/Profile HTTP/1.1" 200 596
0:0:0:0:0:0:0:1 - - [17/Apr/2024:00:04:43 +0530] "GET /EmpWebApp/Profile HTTP/1.1" 200 596
0:0:0:0:0:0:0:1 - - [17/Apr/2024:00:04:46 +0530] "GET /EmpWebApp/EmpHomePage HTTP/1.1" 200 305
