127.0.0.1 - - [16/Apr/2024:00:58:16 +0530] "GET / HTTP/1.1" 404 752
0:0:0:0:0:0:0:1 - - [16/Apr/2024:00:58:24 +0530] "GET /EmpWebApp/LoginServlet?emailId=HR&password=HR HTTP/1.1" 200 351
0:0:0:0:0:0:0:1 - - [16/Apr/2024:00:58:30 +0530] "POST /EmpWebApp/GetEmpById HTTP/1.1" 200 695
0:0:0:0:0:0:0:1 - - [16/Apr/2024:00:58:33 +0530] "GET /EmpWebApp/HRHomePage HTTP/1.1" 200 351
0:0:0:0:0:0:0:1 - - [16/Apr/2024:00:58:35 +0530] "GET /EmpWebApp/ HTTP/1.1" 404 766
127.0.0.1 - - [16/Apr/2024:01:00:38 +0530] "GET / HTTP/1.1" 404 752
0:0:0:0:0:0:0:1 - - [16/Apr/2024:01:00:46 +0530] "GET /EmpWebApp/LoginServlet?emailId=HR&password=HR HTTP/1.1" 200 371
0:0:0:0:0:0:0:1 - - [16/Apr/2024:01:00:48 +0530] "GET /EmpWebApp/GetAllEmployees.java HTTP/1.1" 404 786
127.0.0.1 - - [16/Apr/2024:01:02:19 +0530] "GET / HTTP/1.1" 404 752
0:0:0:0:0:0:0:1 - - [16/Apr/2024:01:02:27 +0530] "GET /EmpWebApp/LoginServlet?emailId=HR&password=HR HTTP/1.1" 200 379
0:0:0:0:0:0:0:1 - - [16/Apr/2024:01:02:29 +0530] "GET /EmpWebApp/com.web/GetAllEmployees.java HTTP/1.1" 404 798
0:0:0:0:0:0:0:1 - - [16/Apr/2024:01:03:09 +0530] "GET /EmpWebApp/com.web/GetAllEmployees.java HTTP/1.1" 404 798
0:0:0:0:0:0:0:1 - - [16/Apr/2024:01:03:12 +0530] "GET /EmpWebApp/com.web/GetAllEmployees.java HTTP/1.1" 404 798
127.0.0.1 - - [16/Apr/2024:01:03:35 +0530] "GET / HTTP/1.1" 404 752
0:0:0:0:0:0:0:1 - - [16/Apr/2024:01:03:42 +0530] "GET /EmpWebApp/LoginServlet?emailId=HR&password=HR HTTP/1.1" 200 394
0:0:0:0:0:0:0:1 - - [16/Apr/2024:01:03:49 +0530] "POST /EmpWebApp/GetEmpById HTTP/1.1" 200 738
0:0:0:0:0:0:0:1 - - [16/Apr/2024:01:03:53 +0530] "GET /EmpWebApp/Java%20Resources/com.web/GetAllEmployees.java HTTP/1.1" 404 819
127.0.0.1 - - [16/Apr/2024:01:16:49 +0530] "GET / HTTP/1.1" 404 752
0:0:0:0:0:0:0:1 - - [16/Apr/2024:01:16:50 +0530] "GET /EmpWebApp/Login.html HTTP/1.1" 304 -
0:0:0:0:0:0:0:1 - - [16/Apr/2024:01:16:59 +0530] "GET /EmpWebApp/LoginServlet?emailId=HR&password=HR HTTP/1.1" 200 351
0:0:0:0:0:0:0:1 - - [16/Apr/2024:01:17:01 +0530] "GET /EmpWebApp/GetEmpById.html HTTP/1.1" 304 -
0:0:0:0:0:0:0:1 - - [16/Apr/2024:01:17:06 +0530] "POST /EmpWebApp/GetEmpById HTTP/1.1" 200 695
0:0:0:0:0:0:0:1 - - [16/Apr/2024:01:17:09 +0530] "GET /EmpWebApp/HRHomePage HTTP/1.1" 200 351
0:0:0:0:0:0:0:1 - - [16/Apr/2024:01:17:11 +0530] "GET /EmpWebApp/ HTTP/1.1" 404 766
127.0.0.1 - - [16/Apr/2024:01:18:30 +0530] "GET / HTTP/1.1" 404 752
0:0:0:0:0:0:0:1 - - [16/Apr/2024:01:18:38 +0530] "GET /EmpWebApp/LoginServlet?emailId=HR&password=HR HTTP/1.1" 200 367
0:0:0:0:0:0:0:1 - - [16/Apr/2024:01:18:41 +0530] "GET /GetAllEmployees HTTP/1.1" 404 767
127.0.0.1 - - [16/Apr/2024:01:24:31 +0530] "GET / HTTP/1.1" 404 752
0:0:0:0:0:0:0:1 - - [16/Apr/2024:01:24:38 +0530] "GET /EmpWebApp/LoginServlet?emailId=HR&password=HR HTTP/1.1" 200 367
0:0:0:0:0:0:0:1 - - [16/Apr/2024:01:24:41 +0530] "GET /GetAllEmployees HTTP/1.1" 404 767
127.0.0.1 - - [16/Apr/2024:01:28:48 +0530] "GET / HTTP/1.1" 404 752
0:0:0:0:0:0:0:1 - - [16/Apr/2024:01:28:55 +0530] "GET /EmpWebApp/LoginServlet?emailId=HR&password=HR HTTP/1.1" 200 390
0:0:0:0:0:0:0:1 - - [16/Apr/2024:01:29:52 +0530] "GET /EmpWebApp/LoginServlet?emailId=HR&password=HR HTTP/1.1" 200 398
0:0:0:0:0:0:0:1 - - [16/Apr/2024:01:29:54 +0530] "GET /EmpWebApp/%3Cform%20action= HTTP/1.1" 404 783
127.0.0.1 - - [16/Apr/2024:01:30:54 +0530] "GET / HTTP/1.1" 404 752
0:0:0:0:0:0:0:1 - - [16/Apr/2024:01:31:01 +0530] "GET /EmpWebApp/LoginServlet?emailId=HR&password=HR HTTP/1.1" 200 367
0:0:0:0:0:0:0:1 - - [16/Apr/2024:01:31:03 +0530] "GET /GetAllEmployees HTTP/1.1" 404 767
127.0.0.1 - - [16/Apr/2024:01:32:08 +0530] "GET / HTTP/1.1" 404 752
0:0:0:0:0:0:0:1 - - [16/Apr/2024:01:32:15 +0530] "GET /EmpWebApp/LoginServlet?emailId=HR&password=HR HTTP/1.1" 200 351
0:0:0:0:0:0:0:1 - - [16/Apr/2024:01:32:17 +0530] "GET /EmpWebApp/ HTTP/1.1" 404 766
127.0.0.1 - - [16/Apr/2024:09:40:01 +0530] "GET / HTTP/1.1" 404 752
0:0:0:0:0:0:0:1 - - [16/Apr/2024:09:40:02 +0530] "GET /EmpWebApp/Login.html HTTP/1.1" 304 -
0:0:0:0:0:0:0:1 - - [16/Apr/2024:09:40:11 +0530] "GET /EmpWebApp/LoginServlet?emailId=HR&password=HR HTTP/1.1" 200 351
0:0:0:0:0:0:0:1 - - [16/Apr/2024:09:40:18 +0530] "GET /EmpWebApp/ HTTP/1.1" 404 766
0:0:0:0:0:0:0:1 - - [16/Apr/2024:09:40:23 +0530] "GET /EmpWebApp/GetEmpById.html HTTP/1.1" 304 -
0:0:0:0:0:0:0:1 - - [16/Apr/2024:09:40:27 +0530] "POST /EmpWebApp/GetEmpById HTTP/1.1" 200 695
0:0:0:0:0:0:0:1 - - [16/Apr/2024:09:40:38 +0530] "POST /EmpWebApp/GetEmpById HTTP/1.1" 200 690
0:0:0:0:0:0:0:1 - - [16/Apr/2024:09:42:04 +0530] "POST /EmpWebApp/GetEmpById HTTP/1.1" 200 691
0:0:0:0:0:0:0:1 - - [16/Apr/2024:09:42:24 +0530] "POST /EmpWebApp/GetEmpById HTTP/1.1" 200 695
0:0:0:0:0:0:0:1 - - [16/Apr/2024:09:42:33 +0530] "GET /EmpWebApp/HRHomePage HTTP/1.1" 200 351
127.0.0.1 - - [16/Apr/2024:10:01:03 +0530] "GET / HTTP/1.1" 404 752
0:0:0:0:0:0:0:1 - - [16/Apr/2024:10:01:11 +0530] "GET /EmpWebApp/LoginServlet?emailId=HR&password=HR HTTP/1.1" 200 366
0:0:0:0:0:0:0:1 - - [16/Apr/2024:10:01:14 +0530] "GET /EmpWebApp/GetAllEmployees HTTP/1.1" 500 1205
127.0.0.1 - - [16/Apr/2024:10:03:01 +0530] "GET / HTTP/1.1" 404 752
0:0:0:0:0:0:0:1 - - [16/Apr/2024:10:03:09 +0530] "GET /EmpWebApp/LoginServlet?emailId=HR&password=HR HTTP/1.1" 200 366
0:0:0:0:0:0:0:1 - - [16/Apr/2024:10:03:11 +0530] "GET /EmpWebApp/GetAllEmployees HTTP/1.1" 200 921
0:0:0:0:0:0:0:1 - - [16/Apr/2024:10:18:13 +0530] "GET /EmpWebApp/LoginServlet?emailId=HR&password=HR HTTP/1.1" 200 366
0:0:0:0:0:0:0:1 - - [16/Apr/2024:10:18:15 +0530] "GET /EmpWebApp/GetAllEmployees HTTP/1.1" 200 921
127.0.0.1 - - [16/Apr/2024:10:49:41 +0530] "GET / HTTP/1.1" 404 752
0:0:0:0:0:0:0:1 - - [16/Apr/2024:10:49:41 +0530] "GET /EmpWebApp/Login.html HTTP/1.1" 200 367
