127.0.0.1 - - [20/Apr/2024:20:06:21 +0530] "GET / HTTP/1.1" 404 752
0:0:0:0:0:0:0:1 - - [20/Apr/2024:20:06:22 +0530] "GET /EmpWebApp/Login.jsp HTTP/1.1" 200 377
0:0:0:0:0:0:0:1 - - [20/Apr/2024:20:06:31 +0530] "GET /EmpWebApp/LoginServlet?emailId=HR&password=HR HTTP/1.1" 200 735
0:0:0:0:0:0:0:1 - - [20/Apr/2024:20:06:33 +0530] "GET /EmpWebApp/GetEmpById.jsp HTTP/1.1" 200 1281
0:0:0:0:0:0:0:1 - - [20/Apr/2024:20:06:38 +0530] "POST /EmpWebApp/GetEmpById HTTP/1.1" 200 1332
0:0:0:0:0:0:0:1 - - [20/Apr/2024:20:06:40 +0530] "GET /EmpWebApp/GetAllEmployees HTTP/1.1" 200 1879
0:0:0:0:0:0:0:1 - - [20/Apr/2024:20:06:42 +0530] "GET /EmpWebApp/Logout HTTP/1.1" 200 377
0:0:0:0:0:0:0:1 - - [20/Apr/2024:20:06:56 +0530] "GET /EmpWebApp/LoginServlet?emailId=vaishu@gmail.com&password=123 HTTP/1.1" 200 600
0:0:0:0:0:0:0:1 - - [20/Apr/2024:20:06:58 +0530] "GET /EmpWebApp/Profile.jsp HTTP/1.1" 200 1338
